<?xml version="1.0" encoding="UTF-8"?>
<svg width="281px" height="177px" viewBox="0 0 281 177" version="1.1" xmlns="http://www.w3.org/2000/svg" xmlns:xlink="http://www.w3.org/1999/xlink">
    <!-- Generator: Sketch 49 (51002) - http://www.bohemiancoding.com/sketch -->
    <title>Group</title>
    <desc>Created with Sketch.</desc>
    <defs></defs>
    <g id="Page-1" stroke="none" stroke-width="1" fill="none" fill-rule="evenodd">
        <g id="Cards-(v2)" transform="translate(-1079.000000, -235.000000)">
            <g id="Group-4" transform="translate(1079.000000, 235.000000)">
                <g id="Group">
                    <rect id="Rectangle-15" fill="#0B1047" opacity="0.1" transform="translate(169.500000, 107.500000) rotate(-360.000000) translate(-169.500000, -107.500000) " x="58" y="38" width="223" height="139" rx="8"></rect>
                    <rect id="Rectangle-15" fill="#F2F4F7" transform="translate(131.500000, 69.500000) rotate(-360.000000) translate(-131.500000, -69.500000) " x="20" y="0" width="223" height="139" rx="8"></rect>
                    <rect id="Rectangle-15" fill="#0B1047" transform="translate(58.000000, 158.000000) rotate(-360.000000) translate(-58.000000, -158.000000) " x="20" y="154" width="76" height="8"></rect>
                    <rect id="Rectangle-21" fill="#0B1047" transform="translate(198.000000, 103.500000) rotate(-360.000000) translate(-198.000000, -103.500000) " x="177" y="92" width="42" height="23"></rect>
                    <rect id="Rectangle-27" fill="#10C8D2" x="0" y="15" width="132" height="23"></rect>
                </g>
            </g>
        </g>
    </g>
</svg>