<svg class="main-logo__image" xmlns="http://www.w3.org/2000/svg" width="134" height="27" viewBox="0 0 134 27">
    <defs>
        <linearGradient id="logo-fill-desktop" x1="100%" x2="0%" y1="87.86%" y2="87.86%">
            <stop offset="0%" stop-color="#B8F6F7"></stop>
            <stop offset="100%" stop-color="#00CCD5"></stop>
        </linearGradient>
    </defs>
    <g class="main-logo__text" fill="none" fill-rule="evenodd">
        <path fill="#0A1244" d="M34.143 16.265h-.687c-.122-.541-.285-.944-.49-1.207a1.643 1.643 0 0 0-.31-.304 1.103 1.103 0 0 0-.36-.168 2.225 2.225 0 0 0-.456-.07c-.17-.009-.37-.014-.6-.014h-1.814v3.621h.659c.346 0 .702.012 1.067.037.366.024.722.073 1.068.146.346.073.673.174.98.303.307.13.576.3.808.509.232.21.414.467.548.771.134.305.202.665.202 1.08a2.413 2.413 0 0 1-.743 1.777c-.226.22-.487.399-.782.538a3.517 3.517 0 0 1-.925.288 13.136 13.136 0 0 1-1.974.176 64.144 64.144 0 0 1-4.432-.095v-.688c.326-.01.583-.037.771-.084a.96.96 0 0 0 .428-.205.62.62 0 0 0 .186-.354c.027-.147.04-.322.04-.527v-6.261c0-.205-.013-.38-.04-.527a.638.638 0 0 0-.186-.359.915.915 0 0 0-.431-.204 4.114 4.114 0 0 0-.768-.08v-.674h8.168l.073 2.575zm-1.638 4.689c0-.424-.056-.768-.168-1.032a1.393 1.393 0 0 0-.483-.614 1.86 1.86 0 0 0-.757-.296 5.87 5.87 0 0 0-.998-.077h-.673v3.818c.113.054.23.098.355.132.124.034.294.051.508.051.308 0 .595-.035.863-.106.268-.07.502-.184.702-.34.2-.156.359-.36.476-.61.117-.252.175-.56.175-.926zm13.53 2.655h-4.673v-.673c.395 0 .683-.028.863-.084.18-.056.27-.189.27-.399 0-.146-.029-.295-.087-.446l-.468-1.17h-3.218l-.241.643c-.137.361-.205.622-.205.783 0 .293.114.478.34.556.227.078.491.117.794.117v.673h-3.415v-.673c.273 0 .504-.051.694-.154.19-.102.372-.296.545-.581.173-.285.36-.689.56-1.21l2.859-7.491h.695l3.02 7.724c.22.547.38.916.482 1.109.103.192.244.341.425.446.18.105.433.157.76.157v.673zm-4.358-3.49l-1.368-3.459-1.302 3.46h2.67zm17.113 3.49h-4.878v-.673c.4 0 .702-.044.907-.132.205-.087.336-.214.395-.38.058-.166.088-.385.088-.658v-2.977h-4.6v2.977c0 .41.085.707.256.892.17.185.56.278 1.17.278v.673h-4.914v-.673c.395 0 .696-.044.903-.132.207-.087.341-.213.402-.376.06-.164.091-.384.091-.662v-6.232c0-.278-.029-.497-.087-.655-.059-.159-.188-.284-.388-.377-.2-.093-.507-.139-.921-.139v-.673h4.914v.673c-.605 0-.993.09-1.167.27-.173.181-.26.481-.26.9v2.444h4.6v-2.443c0-.278-.026-.497-.08-.655-.053-.159-.18-.284-.38-.377-.2-.093-.51-.139-.929-.139v-.673h4.878v.673c-.414 0-.722.046-.922.14-.2.092-.327.217-.383.376-.057.158-.085.377-.085.655v6.232c0 .268.026.481.077.64.051.158.18.286.384.384.205.097.515.146.929.146v.673zm12.14 0h-2.654a13.233 13.233 0 0 1-.673-.925c-.205-.31-.4-.62-.589-.933-.187-.312-.373-.622-.555-.929a22.798 22.798 0 0 0-.574-.914 2.573 2.573 0 0 0-.326-.41.947.947 0 0 0-.373-.22 2.145 2.145 0 0 0-.567-.087c-.229-.01-.533-.015-.914-.015v2.59c0 .214.021.396.062.545.042.148.116.27.224.362.107.092.254.16.442.2.188.042.425.063.713.063v.673h-4.958v-.673c.322-.005.576-.03.764-.077a.91.91 0 0 0 .424-.208.67.67 0 0 0 .187-.359c.029-.146.046-.321.05-.526v-6.232c0-.205-.013-.38-.04-.527a.62.62 0 0 0-.186-.355.96.96 0 0 0-.428-.205 3.849 3.849 0 0 0-.771-.084v-.673h4.958v.673c-.61 0-1.002.088-1.177.263-.176.176-.264.478-.264.908v2.618c.083 0 .18-.02.293-.062.112-.041.256-.126.431-.252.176-.127.388-.311.637-.553.248-.241.553-.56.914-.954.224-.254.41-.47.555-.651.147-.18.28-.345.399-.494.12-.149.244-.293.373-.432.13-.138.289-.293.479-.464.16-.141.314-.262.46-.362.147-.1.293-.18.44-.241.146-.061.298-.105.456-.132.159-.027.33-.04.516-.04.097 0 .191.01.282.033.09.021.169.057.237.106a.538.538 0 0 1 .161.179c.04.07.059.157.059.26a.819.819 0 0 1-.1.394c-.065.122-.198.22-.398.293-.22.078-.434.135-.643.172-.21.037-.393.087-.549.15a9.113 9.113 0 0 0-.285.117c-.102.044-.21.099-.322.165a3.536 3.536 0 0 0-.73.581c-.113.117-.247.266-.403.446a16.463 16.463 0 0 1-1.2 1.244 7.891 7.891 0 0 1-.76.629 3.66 3.66 0 0 1 .307-.015c.273 0 .523.017.75.051.226.035.44.097.643.187s.394.217.574.38c.18.164.364.377.549.64.317.459.629.922.936 1.39.307.468.634.932.98 1.39a1.652 1.652 0 0 0 .566.472c.105.051.21.09.315.117.105.027.206.04.303.04v.673zM85.441 20.2c0 .566-.145 1.07-.435 1.515-.29.443-.683.819-1.18 1.126a6.034 6.034 0 0 1-1.745.706 8.887 8.887 0 0 1-2.124.245c-.512 0-.985-.038-1.419-.113a5.185 5.185 0 0 1-1.126-.315c-.317-.134-.564-.297-.742-.49a.923.923 0 0 1-.267-.64c0-.24.08-.432.241-.578.161-.146.405-.22.731-.22.283 0 .518.071.706.213.188.141.382.363.581.665.088.132.182.238.282.319.1.08.208.142.325.186.117.044.244.072.38.084.137.012.286.018.447.018.458 0 .871-.045 1.24-.135.367-.09.68-.23.939-.42.258-.19.456-.433.592-.728.137-.295.205-.645.205-1.05 0-.356-.04-.668-.12-.936a1.898 1.898 0 0 0-.337-.666 1.367 1.367 0 0 0-.52-.395 1.663 1.663 0 0 0-1.173-.047 2.49 2.49 0 0 0-.548.252c-.205.127-.373.22-.505.278a.85.85 0 0 1-.329.088.64.64 0 0 1-.347-.1c-.105-.065-.158-.154-.158-.266 0-.112.05-.213.15-.304.1-.09.25-.184.45-.281.42-.205.78-.386 1.082-.542.303-.156.546-.29.732-.402.229-.136.435-.266.618-.388.182-.121.338-.248.468-.38.129-.132.229-.27.3-.417.07-.146.105-.312.105-.497 0-.22-.035-.409-.106-.567a.927.927 0 0 0-.34-.395 1.656 1.656 0 0 0-.61-.23 4.903 4.903 0 0 0-.918-.074c-.307 0-.597.026-.87.077a3.28 3.28 0 0 0-.717.212c-.205.09-.367.196-.486.318a.564.564 0 0 0-.18.403c0 .107.027.194.081.26a1.5 1.5 0 0 0 .172.179c.06.053.118.11.172.171.053.061.08.143.08.246a.531.531 0 0 1-.106.343.692.692 0 0 1-.263.201c-.105.047-.22.079-.344.096-.124.017-.24.025-.347.025-.234 0-.428-.035-.582-.106a.975.975 0 0 1-.362-.27c-.087-.11-.15-.23-.186-.363a1.396 1.396 0 0 1-.055-.373c0-.131.03-.278.088-.439.058-.16.155-.323.289-.486.134-.163.307-.323.519-.48.212-.155.47-.293.771-.412.303-.12.655-.216 1.057-.29.402-.072.862-.11 1.379-.11 1.316 0 2.31.15 2.98.45.67.3 1.005.773 1.005 1.416 0 .264-.064.505-.194.724-.129.22-.31.422-.544.608a4.693 4.693 0 0 1-.841.519c-.327.16-.685.314-1.075.46.468-.019.888.014 1.261.1.373.085.691.23.954.435.264.204.466.469.607.793.142.325.212.716.212 1.174zm10.605.147l-.08 3.262h-8.834v-.673c.61 0 1.002-.088 1.177-.263.176-.176.264-.478.264-.907v-6.232c0-.283-.029-.504-.085-.662-.056-.159-.187-.283-.394-.374-.208-.09-.528-.135-.962-.135v-.673h8.227l.131 2.575h-.672c-.151-.57-.326-.979-.523-1.225-.198-.247-.42-.398-.666-.454-.246-.056-.615-.084-1.108-.084h-1.857v3.504h1.01c.345 0 .604-.03.774-.092a.582.582 0 0 0 .359-.347c.068-.17.114-.439.139-.805h.702v3.3h-.673c-.02-.366-.068-.636-.146-.809a.617.617 0 0 0-.37-.347c-.168-.059-.425-.088-.771-.088h-1.024v2.333c0 .39.01.676.03.856.019.18.071.33.156.45.086.12.225.206.417.26.193.053.467.08.823.08h.797c.337 0 .657-.043.962-.128.304-.085.603-.305.896-.658.292-.354.497-.908.614-1.664h.687zm13.172 3.262h-4.878v-.673c.4 0 .702-.044.907-.132.205-.087.336-.214.395-.38.058-.166.088-.385.088-.658v-2.977h-4.6v2.977c0 .41.085.707.256.892.17.185.56.278 1.17.278v.673h-4.914v-.673c.395 0 .696-.044.903-.132.207-.087.341-.213.402-.376.06-.164.091-.384.091-.662v-6.232c0-.278-.029-.497-.087-.655-.059-.159-.188-.284-.388-.377-.2-.093-.507-.139-.921-.139v-.673h4.914v.673c-.605 0-.993.09-1.167.27-.173.181-.26.481-.26.9v2.444h4.6v-2.443c0-.278-.026-.497-.08-.655-.053-.159-.18-.284-.38-.377-.2-.093-.51-.139-.929-.139v-.673h4.878v.673c-.415 0-.722.046-.922.14-.2.092-.327.217-.383.376-.057.158-.085.377-.085.655v6.232c0 .268.026.481.077.64.051.158.18.286.384.384.205.097.514.146.929.146v.673zm13.003 0h-4.877v-.673c.307-.005.552-.03.735-.077a.91.91 0 0 0 .42-.212.677.677 0 0 0 .19-.362c.03-.146.044-.32.044-.52V16.55l-4.6 5.347c.01.18.034.337.073.469.04.131.11.238.212.321.103.083.244.145.425.187.18.041.419.062.716.062v.673h-4.914v-.673c.302-.005.545-.03.728-.077a.96.96 0 0 0 .424-.208.667.667 0 0 0 .197-.359c.032-.146.048-.321.048-.526v-6.232c-.005-.2-.02-.372-.048-.516a.666.666 0 0 0-.183-.359.885.885 0 0 0-.416-.212 3.646 3.646 0 0 0-.75-.084v-.673h4.914v.673c-.604 0-.994.09-1.17.27-.17.186-.256.486-.256.9v5.128l4.593-5.347a1.713 1.713 0 0 0-.07-.413.596.596 0 0 0-.2-.29 1 1 0 0 0-.414-.175 4.011 4.011 0 0 0-.698-.073v-.673h4.877v.673c-.317.01-.566.038-.75.084a.885.885 0 0 0-.416.212.645.645 0 0 0-.18.359 3.674 3.674 0 0 0-.043.516v6.232c0 .18.01.342.033.486.022.144.079.267.172.37.092.102.231.18.416.234.186.053.442.08.768.08v.673zm11.256-7.103h-.695c-.063-.614-.198-1.068-.406-1.36-.207-.293-.43-.473-.669-.541a3.016 3.016 0 0 0-.826-.103h-1.258v7.264c0 .287.03.51.088.669.058.159.195.282.41.37.214.087.528.131.943.131v.673h-4.973v-.673c.61 0 1.002-.088 1.177-.263.176-.176.264-.478.264-.907v-7.264h-1.053c-.415 0-.759.033-1.032.099s-.513.246-.72.541c-.207.295-.325.75-.355 1.364h-.694V13.69h9.799v2.816z"></path>
    </g>
    <g class="main-logo__icon" fill="none" fill-rule="evenodd">
        <path fill="url(#logo-fill-desktop)" d="M1.975 22.783c6.697-2.677 11.087-6.1 13.167-10.27v12.511H1.975c.052-.416.052-1.163 0-2.241z"></path>
        <path fill="url(#logo-fill-desktop)" d="M7.242 7.244C8.751 8.68 10.726 9.5 13.167 9.707v3.297c-1.565 2.665-3.54 4.583-5.925 5.754.02-2.728 0-8.555 0-11.514z"></path>
        <path fill="#10C8D2" d="M16.459 10.537H14.7v-.659h2.417V27H0V9.878h5.732v.659H.658V26.34H16.46z"></path>
        <path fill="url(#logo-fill-desktop)" d="M7.9 0c.88 1.258 1.977 2.174 3.292 2.747 0 2.05.008 3.9 0 5.262-1.208 0-2.306-.713-3.292-2.137V0z"></path>
    </g>
</svg>