<?xml version="1.0" encoding="utf-8"?>
<!-- Generator: Adobe Illustrator 21.1.0, SVG Export Plug-In . SVG Version: 6.00 Build 0)  -->
<svg version="1.1" id="Layer_1" xmlns="http://www.w3.org/2000/svg" xmlns:xlink="http://www.w3.org/1999/xlink" x="0px" y="0px"
	 viewBox="0 0 111.2 38.7" style="enable-background:new 0 0 111.2 38.7;" xml:space="preserve">
<style type="text/css">
	.st0{fill:#00ABB1;}
	.st1{fill:#FFFFFF;}
</style>
<path class="st0" d="M15,0.5C7,0.5,0.5,7,0.5,15C0.5,24.9,15,38,15,38s14.5-13.6,14.5-23C29.6,7,23.1,0.5,15,0.5z M15.1,21.4
	c-3.7,0-6.7-3-6.7-6.7s3-6.7,6.7-6.7s6.7,3,6.7,6.7S18.8,21.4,15.1,21.4z"/>
<path class="st0" d="M65.9,15c0,9.4-14.5,23-14.5,23S36.8,24.9,36.8,15c0-8,6.5-14.5,14.5-14.5S65.9,7,65.9,15z"/>
<path class="st1" d="M15,38.7l-0.3-0.3C14.1,37.8,0,25,0,15C0,6.7,6.7,0,15,0s15,6.7,15,15c0,9.5-14.1,22.8-14.7,23.3L15,38.7z
	 M15,1C7.3,1,1,7.3,1,15c0,8.7,11.8,20.2,14,22.3c2.2-2.1,14-14,14-22.3C29.1,7.3,22.8,1,15,1z M15.1,21.9c-4,0-7.2-3.2-7.2-7.2
	s3.2-7.2,7.2-7.2s7.2,3.2,7.2,7.2S19.1,21.9,15.1,21.9z M15.1,8.5c-3.4,0-6.2,2.8-6.2,6.2s2.8,6.2,6.2,6.2s6.2-2.8,6.2-6.2
	S18.6,8.5,15.1,8.5z"/>
<path class="st1" d="M51.4,38.7L51,38.4C50.4,37.8,36.3,25,36.3,15c0-8.3,6.7-15,15-15s15,6.7,15,15c0,9.5-14.1,22.8-14.7,23.3
	L51.4,38.7z M51.4,1c-7.7,0-14,6.3-14,14c0,8.7,11.8,20.2,14,22.3c2.2-2.1,14-14,14-22.3C65.4,7.3,59.1,1,51.4,1z"/>
<circle class="st0" cx="91.9" cy="19.2" r="18.8"/>
<path class="st1" d="M91.9,38.5c-10.6,0-19.2-8.6-19.2-19.2S81.3,0,91.9,0s19.2,8.6,19.2,19.2S102.5,38.5,91.9,38.5z M91.9,1
	C81.9,1,73.7,9.2,73.7,19.2c0,10.1,8.2,18.2,18.2,18.2s18.2-8.2,18.2-18.2C110.2,9.2,102,1,91.9,1z"/>
</svg>
