<?xml version="1.0" encoding="UTF-8"?>
<svg width="44px" height="44px" viewBox="0 0 44 44" version="1.1" xmlns="http://www.w3.org/2000/svg" xmlns:xlink="http://www.w3.org/1999/xlink">
    <!-- Generator: Sketch 49 (51002) - http://www.bohemiancoding.com/sketch -->
    <title>Group 22 Copy</title>
    <desc>Created with Sketch.</desc>
    <defs></defs>
    <g id="Page-1" stroke="none" stroke-width="1" fill="none" fill-rule="evenodd">
        <g id="Deposit_Tablet" transform="translate(-443.000000, -2259.000000)">
            <g id="Group-22-Copy" transform="translate(443.000000, 2259.000000)">
                <g id="Group-23" transform="translate(17.000000, 33.000000) rotate(-180.000000) translate(-17.000000, -33.000000) translate(0.000000, 22.000000)">
                    <rect id="Rectangle-3" fill="#0B1047" x="0" y="0" width="34" height="22"></rect>
                    <circle id="Oval-2" fill="#FFFFFF" cx="17" cy="11" r="3"></circle>
                </g>
                <g id="Group-24">
                    <rect id="Rectangle-3" fill="#10C8D2" x="6" y="0" width="38" height="24"></rect>
                    <circle id="Oval-2" fill="#FFFFFF" cx="25" cy="12" r="4"></circle>
                    <rect id="Rectangle-10" fill="#0B1047" x="0" y="9" width="16" height="4"></rect>
                </g>
            </g>
        </g>
    </g>
</svg>