<?xml version="1.0" encoding="UTF-8"?>
<svg width="44px" height="44px" viewBox="0 0 44 44" version="1.1" xmlns="http://www.w3.org/2000/svg" xmlns:xlink="http://www.w3.org/1999/xlink">
    <!-- Generator: Sketch 49 (51002) - http://www.bohemiancoding.com/sketch -->
    <title>Group 21 Copy</title>
    <desc>Created with Sketch.</desc>
    <defs></defs>
    <g id="Page-1" stroke="none" stroke-width="1" fill="none" fill-rule="evenodd">
        <g id="Deposit_Tablet" transform="translate(-72.000000, -2259.000000)">
            <g id="Group-21-Copy" transform="translate(72.000000, 2259.000000)">
                <rect id="Rectangle-8" fill="#0B1047" x="0" y="0" width="26" height="44"></rect>
                <rect id="Rectangle-8" fill="#10C8D2" x="0" y="0" width="26" height="39"></rect>
                <path d="M19.5,22.5 C19.5,18.6340068 16.3659932,15.5 12.5,15.5 C8.63400675,15.5 5.5,18.6340068 5.5,22.5 C9.45151367,22.5 16.3804199,22.5 19.5,22.5 Z" id="Oval" fill="#FFFFFF" transform="translate(12.500000, 19.000000) rotate(-90.000000) translate(-12.500000, -19.000000) "></path>
                <circle id="Oval-2" fill="#10C8D2" cx="40" cy="19" r="4"></circle>
            </g>
        </g>
    </g>
</svg>