<svg width="135px" height="40px" viewBox="0 0 135 40" version="1.1" xmlns="http://www.w3.org/2000/svg" xmlns:xlink="http://www.w3.org/1999/xlink">
    <!-- Generator: Sketch 49 (51002) - http://www.bohemiancoding.com/sketch -->
    <desc>Created with Sketch.</desc>
    <defs>
        <linearGradient x1="91.5361538%" y1="4.8388%" x2="-37.5592308%" y2="71.9684%" id="linearGradient-1">
            <stop stop-color="#00A0FF" offset="0%"></stop>
            <stop stop-color="#00A1FF" offset="0.657445%"></stop>
            <stop stop-color="#00BEFF" offset="26.01%"></stop>
            <stop stop-color="#00D2FF" offset="51.22%"></stop>
            <stop stop-color="#00DFFF" offset="76.04%"></stop>
            <stop stop-color="#00E3FF" offset="100%"></stop>
        </linearGradient>
        <linearGradient x1="107.728079%" y1="49.4282353%" x2="-130.665025%" y2="49.4282353%" id="linearGradient-2">
            <stop stop-color="#FFE000" offset="0%"></stop>
            <stop stop-color="#FFBD00" offset="40.87%"></stop>
            <stop stop-color="#FFA500" offset="77.54%"></stop>
            <stop stop-color="#FF9C00" offset="100%"></stop>
        </linearGradient>
        <linearGradient x1="86.3892216%" y1="17.8150459%" x2="-49.888024%" y2="194.392791%" id="linearGradient-3">
            <stop stop-color="#FF3A44" offset="0%"></stop>
            <stop stop-color="#C31162" offset="100%"></stop>
        </linearGradient>
        <linearGradient x1="-18.5790419%" y1="-54.5266535%" x2="42.2748503%" y2="24.6901019%" id="linearGradient-4">
            <stop stop-color="#32A071" offset="0%"></stop>
            <stop stop-color="#2DA771" offset="6.85%"></stop>
            <stop stop-color="#15CF74" offset="47.62%"></stop>
            <stop stop-color="#06E775" offset="80.09%"></stop>
            <stop stop-color="#00F076" offset="100%"></stop>
        </linearGradient>
    </defs>
    <g id="Symbols" stroke="none" stroke-width="1" fill="none" fill-rule="evenodd">
        <g id="Footer" transform="translate(-967.000000, -45.000000)" fill-rule="nonzero">
            <g id="Group-13" transform="translate(967.000000, 45.000000)">
                <path d="M124.249442,0.00013 L10.7566273,0.00013 C10.3429317,0.00013 9.93419996,0.00013 9.52159867,0.00213 C9.17621304,0.00413 8.83358012,0.00994 8.48487771,0.01483 C7.72733492,0.0227318036 6.97157362,0.0818062599 6.22416152,0.19154 C5.47779923,0.303662628 4.7548173,0.51504574 4.07966819,0.81854 C3.40534482,1.12460171 2.78919627,1.52229753 2.25357495,1.9972 C1.71514171,2.47076699 1.26631603,3.01814638 0.924356409,3.61829 C0.581453001,4.21723912 0.343682672,4.8590683 0.219257543,5.52161 C0.0936494727,6.18331491 0.0260586272,6.85265054 0.0170915965,7.52361 C0.00662228854,7.83021 0.00551669352,8.13783 0,8.44447 L0,31.55873 C0.00551669352,31.86923 0.00662228854,32.17003 0.0170915965,32.48063 C0.0260613769,33.1515562 0.0936522236,33.8208584 0.219257543,34.48253 C0.343339096,35.145459 0.581123484,35.7876566 0.924356409,36.38683 C1.26616076,36.9850329 1.71504955,37.5301962 2.25357495,38.00113 C2.78716536,38.478144 3.40371217,38.8761104 4.07966819,39.17983 C4.75481217,39.4841365 5.47771616,39.6967778 6.22416152,39.81063 C6.97170068,39.9194847 7.72738425,39.9785832 8.48487771,39.98743 C8.83358012,39.99423 9.17621304,39.99813 9.52159867,39.99813 C9.93418868,40.00013 10.3429542,40.00013 10.7566273,40.00013 L124.249442,40.00013 C124.654902,40.00013 125.066906,40.00013 125.472366,39.99813 C125.816115,39.99813 126.168665,39.99423 126.512415,39.98743 C127.268476,39.9790537 128.022737,39.9199515 128.768731,39.81063 C129.517585,39.6959764 130.24308,39.4833914 130.921483,39.17983 C131.596829,38.8759346 132.212807,38.4779791 132.74594,38.00113 C133.283076,37.5283518 133.732923,36.9835873 134.078972,36.38683 C134.419629,35.7872208 134.65515,35.1450745 134.777414,34.48253 C134.903221,33.8207676 134.97321,33.1516143 134.986801,32.48063 C134.9912,32.17003 134.9912,31.86923 134.9912,31.55873 C135,31.19543 135,30.83413 135,30.46493 L135,9.53626 C135,9.17005 135,8.80677 134.9912,8.44447 C134.9912,8.13783 134.9912,7.83021 134.986801,7.52357 C134.973213,6.85255244 134.903224,6.18336567 134.777414,5.52157 C134.654809,4.8594116 134.419302,4.21763328 134.078972,3.61825 C133.382587,2.41532608 132.278322,1.4361554 130.921483,0.81845 C130.243078,0.51569738 129.517505,0.30437041 128.768731,0.19145 C128.022866,0.0812327831 127.268527,0.0221377649 126.512415,0.01469 C126.168665,0.00981 125.816115,0.00395 125.472366,0.002 C125.066906,0 124.654902,0 124.249442,0 L124.249442,0.00013 Z" id="Shape" fill="#A6A6A6"></path>
                <path d="M9.54026991,39.25 C9.19662077,39.25 8.86127299,39.2461 8.52031953,39.2393 C7.81400683,39.2311407 7.10934495,39.176625 6.41211304,39.0762 C5.76197946,38.9769282 5.13217479,38.7922645 4.5434729,38.5283 C3.96016909,38.2665227 3.42814913,37.9232729 2.96779399,37.5117 C2.50077531,37.1049753 2.11196093,36.633244 1.81675886,36.1152 C1.51830391,35.5937891 1.31175533,35.0348996 1.20430814,34.458 C1.08827452,33.8381149 1.02549552,33.2113132 1.01651248,32.583 C1.00936159,32.3721 1,31.6699 1,31.6699 L1,8.56934 C1,8.56934 1.00997065,7.87793 1.01656888,7.6748 C1.02517006,7.04748205 1.087584,6.4216531 1.20327047,5.80273 C1.31091599,5.22425008 1.51762448,4.66374887 1.81624002,4.14063 C2.11035715,3.62294385 2.49701292,3.15086029 2.96121832,2.74268 C3.42490197,2.33062142 3.95862376,1.98560412 4.54292023,1.72021 C5.13026911,1.4570936 5.75888353,1.27373255 6.40770294,1.17627 C7.10722467,1.07483614 7.81433286,1.01999608 8.52309417,1.01221 L9.54082258,1 L125.453662,1 L126.483549,1.0127 C127.185864,1.0200992 127.886548,1.07445001 128.579642,1.17529 C129.23503,1.27397507 129.870195,1.45861553 130.464253,1.72314 C131.634811,2.25798605 132.587271,3.10416295 133.188136,4.14307 C133.481985,4.66257756 133.685506,5.21850676 133.791789,5.79199 C133.908853,6.41599138 133.974371,7.04673834 133.987819,7.6792 C133.99109,7.9624 133.99109,8.2666 133.99109,8.56934 C134,8.94434 134,9.30127 134,9.66113 L134,30.5898 C134,30.9531 134,31.3076 133.99109,31.665 C133.99109,31.9902 133.99109,32.2881 133.986691,32.5947 C133.973534,33.2158757 133.909109,33.8353642 133.793932,34.4482 C133.688688,35.0292612 133.483263,35.5925131 133.184865,36.1182 C132.887576,36.6306211 132.500995,37.0982662 132.039368,37.5039 C131.578599,37.9176846 131.04564,38.2629427 130.460982,38.5264 C129.86857,38.7923937 129.234339,38.9777403 128.579642,39.0762 C127.882463,39.177161 127.177733,39.2316802 126.471368,39.2393 C126.141005,39.2461 125.795078,39.25 125.459189,39.25 L124.236543,39.252 L9.54026991,39.25 Z" id="Shape" fill="#000000"></path>
                <path d="M68.1,21.8 C65.7,21.8 63.8,23.6 63.8,26.1 C63.8,28.5 65.7,30.4 68.1,30.4 C70.5,30.4 72.4,28.6 72.4,26.1 C72.4,23.5 70.5,21.8 68.1,21.8 Z M68.1,28.6 C66.8,28.6 65.7,27.5 65.7,26 C65.7,24.5 66.8,23.4 68.1,23.4 C69.4,23.4 70.5,24.4 70.5,26 C70.5,27.5 69.4,28.6 68.1,28.6 Z M58.8,21.8 C56.4,21.8 54.5,23.6 54.5,26.1 C54.5,28.5 56.4,30.4 58.8,30.4 C61.2,30.4 63.1,28.6 63.1,26.1 C63.1,23.5 61.2,21.8 58.8,21.8 Z M58.8,28.6 C57.5,28.6 56.4,27.5 56.4,26 C56.4,24.5 57.5,23.4 58.8,23.4 C60.1,23.4 61.2,24.4 61.2,26 C61.2,27.5 60.1,28.6 58.8,28.6 Z M47.7,23.1 L47.7,24.9 L52,24.9 C51.9,25.9 51.5,26.7 51,27.2 C50.4,27.8 49.4,28.5 47.7,28.5 C45,28.5 43,26.4 43,23.7 C43,21 45.1,18.9 47.7,18.9 C49.1,18.9 50.2,19.5 51,20.2 L52.3,18.9 C51.2,17.9 49.8,17.1 47.8,17.1 C44.2,17.1 41.1,20.1 41.1,23.7 C41.1,27.3 44.2,30.3 47.8,30.3 C49.8,30.3 51.2,29.7 52.4,28.4 C53.6,27.2 54,25.5 54,24.2 C54,23.8 54,23.4 53.9,23.1 L47.7,23.1 Z M93.1,24.5 C92.7,23.5 91.7,21.8 89.5,21.8 C87.3,21.8 85.5,23.5 85.5,26.1 C85.5,28.5 87.3,30.4 89.7,30.4 C91.6,30.4 92.8,29.2 93.2,28.5 L91.8,27.5 C91.3,28.2 90.7,28.7 89.7,28.7 C88.7,28.7 88.1,28.3 87.6,27.4 L93.3,25 L93.1,24.5 Z M87.3,25.9 C87.3,24.3 88.6,23.4 89.5,23.4 C90.2,23.4 90.9,23.8 91.1,24.3 L87.3,25.9 Z M82.6,30 L84.5,30 L84.5,17.5 L82.6,17.5 L82.6,30 Z M79.6,22.7 C79.1,22.2 78.3,21.7 77.3,21.7 C75.2,21.7 73.2,23.6 73.2,26 C73.2,28.4 75.1,30.2 77.3,30.2 C78.3,30.2 79.1,29.7 79.5,29.2 L79.6,29.2 L79.6,29.8 C79.6,31.4 78.7,32.3 77.3,32.3 C76.2,32.3 75.4,31.5 75.2,30.8 L73.6,31.5 C74.1,32.6 75.3,34 77.4,34 C79.6,34 81.4,32.7 81.4,29.6 L81.4,22 L79.6,22 L79.6,22.7 Z M77.4,28.6 C76.1,28.6 75,27.5 75,26 C75,24.5 76.1,23.4 77.4,23.4 C78.7,23.4 79.7,24.5 79.7,26 C79.7,27.5 78.7,28.6 77.4,28.6 Z M101.8,17.5 L97.3,17.5 L97.3,30 L99.2,30 L99.2,25.3 L101.8,25.3 C103.9,25.3 105.9,23.8 105.9,21.4 C105.9,19 103.9,17.5 101.8,17.5 Z M101.9,23.5 L99.2,23.5 L99.2,19.2 L101.9,19.2 C103.3,19.2 104.1,20.4 104.1,21.3 C104,22.4 103.2,23.5 101.9,23.5 Z M113.4,21.7 C112,21.7 110.6,22.3 110.1,23.6 L111.8,24.3 C112.2,23.6 112.8,23.4 113.5,23.4 C114.5,23.4 115.4,24 115.5,25 L115.5,25.1 C115.2,24.9 114.4,24.6 113.6,24.6 C111.8,24.6 110,25.6 110,27.4 C110,29.1 111.5,30.2 113.1,30.2 C114.4,30.2 115,29.6 115.5,29 L115.6,29 L115.6,30 L117.4,30 L117.4,25.2 C117.2,23 115.5,21.7 113.4,21.7 Z M113.2,28.6 C112.6,28.6 111.7,28.3 111.7,27.5 C111.7,26.5 112.8,26.2 113.7,26.2 C114.5,26.2 114.9,26.4 115.4,26.6 C115.2,27.8 114.2,28.6 113.2,28.6 Z M123.7,22 L121.6,27.4 L121.5,27.4 L119.3,22 L117.3,22 L120.6,29.6 L118.7,33.8 L120.6,33.8 L125.7,22 L123.7,22 Z M106.9,30 L108.8,30 L108.8,17.5 L106.9,17.5 L106.9,30 Z" id="Shape" fill="#FFFFFF"></path>
                <g id="Group" transform="translate(9.000000, 7.000000)">
                    <path d="M1.4,0.5 C1.1,0.8 0.9,1.3 0.9,1.9 L0.9,24 C0.9,24.6 1.1,25.1 1.4,25.4 L1.5,25.5 L13.9,13.1 L13.9,13 L13.9,12.9 L1.4,0.5 Z" id="Shape" fill="url(#linearGradient-1)"></path>
                    <path d="M18,17.3 L13.9,13.2 L13.9,13 L13.9,12.9 L18,8.8 L18.1,8.9 L23,11.7 C24.4,12.5 24.4,13.8 23,14.6 L18,17.3 Z" id="Shape" fill="url(#linearGradient-2)"></path>
                    <path d="M18.1,17.2 L13.9,13 L1.4,25.5 C1.9,26 2.6,26 3.5,25.6 L18.1,17.2" id="Shape" fill="url(#linearGradient-3)"></path>
                    <path d="M18.1,8.8 L3.5,0.5 C2.6,-1.74860126e-15 1.9,0.1 1.4,0.6 L13.9,13 L18.1,8.8 Z" id="Shape" fill="url(#linearGradient-4)"></path>
                    <g transform="translate(1.000000, 17.000000)" fill="#000000" id="Shape">
                        <path d="M17,0.1 L2.5,8.3 C1.7,8.8 1,8.7 0.5,8.3 L0.4,8.4 L0.5,8.5 C1,8.9 1.7,9 2.5,8.5 L17,0.1 Z" opacity="0.2"></path>
                        <path d="M0.4,8.3 C0.1,8 0,7.5 0,6.9 L0,7 C0,7.6 0.2,8.1 0.5,8.4 L0.5,8.3 L0.4,8.3 Z" opacity="0.12"></path>
                    </g>
                    <path d="M23,14.3 L18,17.1 L18.1,17.2 L23,14.4 C23.7,14 24,13.5 24,13 C24,13.5 23.6,13.9 23,14.3 Z" id="Shape" fill="#000000" opacity="0.12"></path>
                    <path d="M3.5,0.6 L23,11.7 C23.6,12.1 24,12.5 24,13 C24,12.5 23.7,12 23,11.6 L3.5,0.5 C2.1,-0.3 1,0.4 1,2 L1,2.1 C1,0.5 2.1,-0.2 3.5,0.6 Z" id="Shape" fill="#FFFFFF" opacity="0.25"></path>
                </g>
                <path d="M42.1,14.3 L41.4,14.3 L41.4,12.3 L42,12.3 C42.5,11.9 42.8,11.1 42.8,10 L42.8,7 L46.8,7 L46.8,12.3 L47.5,12.3 L47.5,14.3 L46.8,14.3 L46.8,13 L42.2,13 L42.2,14.3 L42.1,14.3 Z M43.5,10 C43.5,10.9 43.3,11.7 42.9,12.3 L45.9,12.3 L45.9,7.8 L43.4,7.8 L43.4,10 L43.5,10 Z" id="Shape" stroke="#FFFFFF" stroke-width="0.2" fill="#FFFFFF"></path>
                <path d="M53.4,12.2 C52.8,12.8 52.1,13.1 51.2,13.1 C50.3,13.1 49.6,12.8 49,12.2 C48.4,11.6 48.1,10.9 48.1,10 C48.1,9.1 48.4,8.4 49,7.8 C49.6,7.2 50.3,6.9 51.2,6.9 C52.1,6.9 52.8,7.2 53.4,7.8 C54,8.4 54.3,9.1 54.3,10 C54.3,10.9 54,11.6 53.4,12.2 Z M49.6,11.7 C50,12.1 50.6,12.4 51.2,12.4 C51.8,12.4 52.4,12.2 52.8,11.7 C53.2,11.3 53.5,10.7 53.5,10 C53.5,9.3 53.3,8.7 52.8,8.3 C52.4,7.9 51.8,7.6 51.2,7.6 C50.6,7.6 50,7.8 49.6,8.3 C49.2,8.7 48.9,9.3 48.9,10 C48.9,10.7 49.1,11.3 49.6,11.7 Z" id="Shape" stroke="#FFFFFF" stroke-width="0.2" fill="#FFFFFF"></path>
                <path d="M58.2,13.1 C57.3,13.1 56.6,12.8 56,12.2 C55.4,11.6 55.1,10.9 55.1,10 C55.1,9.1 55.4,8.4 56,7.8 C56.6,7.2 57.3,6.9 58.2,6.9 C59.1,6.9 59.8,7.2 60.4,7.9 L59.9,8.4 C59.5,7.9 58.9,7.6 58.2,7.6 C57.5,7.6 57,7.8 56.5,8.3 C56,8.7 55.8,9.3 55.8,10 C55.8,10.7 56,11.3 56.5,11.7 C56.9,12.1 57.5,12.4 58.2,12.4 C58.9,12.4 59.5,12.1 60,11.5 L60.5,12 C60.2,12.3 59.9,12.6 59.5,12.8 C59.1,13 58.7,13.1 58.2,13.1 Z" id="Shape" stroke="#FFFFFF" stroke-width="0.2" fill="#FFFFFF"></path>
                <polygon id="Shape" stroke="#FFFFFF" stroke-width="0.2" fill="#FFFFFF" points="63.7 13 62.9 13 62.9 7.7 61.2 7.7 61.2 7 65.3 7 65.3 7.7 63.6 7.7 63.6 13"></polygon>
                <path d="M70.6,7 L68.3,12.1 C68,12.8 67.5,13.2 66.9,13.2 C66.7,13.2 66.5,13.2 66.3,13.1 L66.5,12.4 C66.6,12.5 66.8,12.5 66.9,12.5 C67.1,12.5 67.2,12.5 67.3,12.4 C67.4,12.3 67.5,12.2 67.6,12 L67.8,11.5 L65.8,7.1 L66.7,7.1 L68.2,10.5 L69.6,7.1 L70.6,7.1 L70.6,7 Z" id="Shape" stroke="#FFFFFF" stroke-width="0.2" fill="#FFFFFF"></path>
                <polygon id="Shape" stroke="#FFFFFF" stroke-width="0.2" fill="#FFFFFF" points="71.5 13 71.5 7 75.8 7 75.8 13 75 13 75 7.7 72.2 7.7 72.2 13"></polygon>
                <polygon id="Shape" stroke="#FFFFFF" stroke-width="0.2" fill="#FFFFFF" points="77.2 13 77.2 7 78 7 78 9.6 81 9.6 81 7 81.8 7 81.8 13 81 13 81 10.3 78 10.3 78 13"></polygon>
                <path d="M88.1,12.2 C87.5,12.8 86.8,13.1 85.9,13.1 C85,13.1 84.3,12.8 83.7,12.2 C83.1,11.6 82.8,10.9 82.8,10 C82.8,9.1 83.1,8.4 83.7,7.8 C84.3,7.2 85,6.9 85.9,6.9 C86.8,6.9 87.5,7.2 88.1,7.8 C88.7,8.4 89,9.1 89,10 C88.9,10.9 88.6,11.6 88.1,12.2 Z M84.2,11.7 C84.6,12.1 85.2,12.4 85.8,12.4 C86.4,12.4 87,12.2 87.4,11.7 C87.8,11.3 88.1,10.7 88.1,10 C88.1,9.3 87.9,8.7 87.4,8.3 C87,7.9 86.4,7.6 85.8,7.6 C85.2,7.6 84.6,7.8 84.2,8.3 C83.8,8.7 83.5,9.3 83.5,10 C83.5,10.7 83.8,11.3 84.2,11.7 Z" id="Shape" stroke="#FFFFFF" stroke-width="0.2" fill="#FFFFFF"></path>
                <path d="M92.1,13 L92.1,7 L94.3,7 C94.8,7 95.2,7.2 95.5,7.5 C95.8,7.8 96,8.2 96,8.7 C96,9 95.9,9.2 95.8,9.5 C95.7,9.7 95.5,9.9 95.2,10 C95.5,10.1 95.7,10.3 95.9,10.5 C96.1,10.7 96.2,11 96.2,11.4 C96.2,11.9 96,12.3 95.7,12.6 C95.3,12.9 94.9,13.1 94.4,13.1 L92.1,13.1 L92.1,13 Z M92.9,9.6 L94.3,9.6 C94.6,9.6 94.8,9.5 95,9.3 C95.2,9.1 95.3,8.9 95.3,8.7 C95.3,8.5 95.2,8.3 95,8.1 C94.8,7.9 94.6,7.8 94.3,7.8 L92.9,7.8 L92.9,9.6 Z M92.9,12.3 L94.5,12.3 C94.8,12.3 95,12.2 95.2,12 C95.4,11.8 95.5,11.6 95.5,11.3 C95.5,11.1 95.4,10.8 95.2,10.6 C95,10.4 94.8,10.3 94.5,10.3 L93,10.3 L93,12.3 L92.9,12.3 Z" id="Shape" stroke="#FFFFFF" stroke-width="0.2" fill="#FFFFFF"></path>
            </g>
        </g>
    </g>
</svg>
