<svg xmlns="http://www.w3.org/2000/svg" width="43" height="50" viewBox="0 0 43 50">
  <defs>
    <style>
      .cls-1 {
        fill: #fff;
        fill-rule: evenodd;
      }
    </style>
  </defs>
  <path id="_2" data-name="2" class="cls-1" d="M38.053,34.206H27.02l2.895-24.75a8.472,8.472,0,1,0-16.83,0L15.98,34.206H4.947A4.952,4.952,0,0,0,0,39.152V45.8a1,1,0,0,0,1,1H2.5V49a1,1,0,0,0,1,1H39.5a1,1,0,0,0,1-1V46.8H42a1,1,0,0,0,1-1V39.152A4.952,4.952,0,0,0,38.053,34.206ZM15.064,9.225a6.48,6.48,0,1,1,12.873,0L25.015,34.206H17.985ZM38.507,48.008H4.492V46.8H38.508v1.209h0Zm2.5-3.2H1.992V43.8H14.2a1,1,0,1,0,0-1.992H1.992V39.152A2.958,2.958,0,0,1,4.947,36.2H38.053a2.958,2.958,0,0,1,2.955,2.954v5.655h0Zm-23.409-3H17.4a1,1,0,1,0,0,1.992h0.2A1,1,0,1,0,17.6,41.807Z"/>
</svg>
