<svg xmlns="http://www.w3.org/2000/svg" width="50" height="39" viewBox="0 0 50 39">
  <defs>
    <style>
      .cls-1 {
        fill: #fff;
        fill-rule: evenodd;
      }
    </style>
  </defs>
  <path id="_5" data-name="5" class="cls-1" d="M30.913,4.693a6.631,6.631,0,1,0,6.544,6.631A6.6,6.6,0,0,0,30.913,4.693Zm0,11.242a4.612,4.612,0,1,1,4.552-4.611A4.587,4.587,0,0,1,30.913,15.935Zm0.392-5.443V9.2a8.615,8.615,0,0,1,1.026.328A0.692,0.692,0,0,0,32.875,8.8c0-.613-1.026-0.755-1.57-0.773V7.8a0.318,0.318,0,0,0-.333-0.24,0.3,0.3,0,0,0-.333.24V8.049a1.806,1.806,0,0,0-1.754,1.8c0,1.137.947,1.519,1.754,1.83v1.439c-0.649-.115-0.947-0.64-1.315-0.64a0.761,0.761,0,0,0-.6.746c0,0.569.859,1.119,1.912,1.155v0.222a0.3,0.3,0,0,0,.333.24,0.318,0.318,0,0,0,.333-0.24V14.348a1.879,1.879,0,0,0,1.728-1.937A2.084,2.084,0,0,0,31.305,10.492Zm-0.579-.213a0.709,0.709,0,0,1-.561-0.56,0.57,0.57,0,0,1,.561-0.5v1.057Zm0.491,2.834V11.922a0.744,0.744,0,0,1,.535.631A0.589,0.589,0,0,1,31.218,13.113ZM49.015,0h-36.2a1,1,0,0,0-1,1.01V20.625H0.985a1,1,0,0,0-1,1.01V37.987a1,1,0,0,0,1,1.01H28.232a1,1,0,0,0,1-1.01V22.644H49.015a1,1,0,0,0,1-1.009V1.013A1,1,0,0,0,49.015,0ZM13.809,2.022h1.522l-0.761.771-0.761.771V2.022Zm0,17.061,1.522,1.542H13.809V19.083ZM27.236,36.977H1.982V35.392H27.236v1.585Zm0-3.6H1.982v-1.5H27.236v1.5Zm0-10.729v7.212H1.982V22.644H27.236Zm20.783-2.019H46.5l1.522-1.542v1.542Zm0-4.4-4.341,4.4H18.149l-4.341-4.4V6.42l4.341-4.4H43.678l4.341,4.4v9.807h0Zm0-12.663L46.5,2.022h1.522V3.564Zm-2.233,5.02H45.427a1.01,1.01,0,0,0,0,2.019h0.358A1.01,1.01,0,0,0,45.786,8.584Zm-3.283,0H39.745a1.01,1.01,0,0,0,0,2.019H42.5A1.01,1.01,0,0,0,42.5,8.584Zm3.283,3.459h-6.04a1.009,1.009,0,0,0,0,2.019h6.04A1.009,1.009,0,0,0,45.786,12.044ZM22.248,8.584H16.208a1.01,1.01,0,0,0,0,2.019h6.041A1.01,1.01,0,0,0,22.248,8.584Zm0,3.459H16.208a1.009,1.009,0,0,0,0,2.019h6.041A1.009,1.009,0,0,0,22.248,12.044ZM9.663,25.284H5.324a1.01,1.01,0,0,0,0,2.019H9.663A1.01,1.01,0,0,0,9.663,25.284Z"/>
</svg>
