<?xml version="1.0" encoding="utf-8"?>
<!-- Generator: Adobe Illustrator 21.1.0, SVG Export Plug-In . SVG Version: 6.00 Build 0)  -->
<svg version="1.1" id="Layer_1" xmlns="http://www.w3.org/2000/svg" xmlns:xlink="http://www.w3.org/1999/xlink" x="0px" y="0px"
	 viewBox="0 0 38.5 38.7" style="enable-background:new 0 0 38.5 38.7;" xml:space="preserve">
<style type="text/css">
	.st0{fill:#00ABB1;}
	.st1{fill:#FFFFFF;}
</style>
<path class="st0" d="M19.2,0.5C11.2,0.5,4.7,7,4.7,15c0,9.8,14.5,23,14.5,23s14.5-13.6,14.5-23C33.8,7,27.3,0.5,19.2,0.5z
	 M19.4,21.4c-3.7,0-6.7-3-6.7-6.7s3-6.7,6.7-6.7s6.7,3,6.7,6.7S23.1,21.4,19.4,21.4z"/>
<path class="st1" d="M19.3,38.7l-0.3-0.3C18.3,37.8,4.2,25,4.2,15c0-8.3,6.7-15,15-15s15,6.7,15,15c0,9.5-14.1,22.8-14.7,23.3
	L19.3,38.7z M19.2,1c-7.7,0-14,6.3-14,14c0,8.7,11.8,20.2,14,22.3c2.2-2.1,14-14,14-22.3C33.3,7.3,27,1,19.2,1z M19.4,21.9
	c-4,0-7.2-3.2-7.2-7.2s3.2-7.2,7.2-7.2s7.2,3.2,7.2,7.2S23.3,21.9,19.4,21.9z M19.4,8.5c-3.4,0-6.2,2.8-6.2,6.2s2.8,6.2,6.2,6.2
	s6.2-2.8,6.2-6.2S22.8,8.5,19.4,8.5z"/>
</svg>
