<?xml version="1.0" encoding="UTF-8"?>
<svg width="35px" height="44px" viewBox="0 0 35 44" version="1.1" xmlns="http://www.w3.org/2000/svg" xmlns:xlink="http://www.w3.org/1999/xlink">
    <!-- Generator: Sketch 49 (51002) - http://www.bohemiancoding.com/sketch -->
    <title>Group 25 Copy</title>
    <desc>Created with Sketch.</desc>
    <defs></defs>
    <g id="Page-1" stroke="none" stroke-width="1" fill="none" fill-rule="evenodd">
        <g id="Deposit_Tablet" transform="translate(-438.000000, -2529.000000)">
            <g id="Group-25-Copy" transform="translate(438.000000, 2529.000000)">
                <polygon id="Rectangle-3" fill="#0B1047" points="30 44 -3.55271368e-15 44 3.55271368e-15 -7.10542736e-15 30 0"></polygon>
                <rect id="Rectangle-3" fill="#10C8D2" x="5" y="0" width="30" height="44"></rect>
                <circle id="Oval-2" fill="#FFFFFF" cx="26" cy="22" r="4"></circle>
            </g>
        </g>
    </g>
</svg>